{
  "name": "app-b",
  "$schema": "../../node_modules/nx/schemas/project-schema.json",
  "sourceRoot": "apps/app-b/src",
  "projectType": "application",
  "tags": [],
  "targets": {
    "serve": {
      "executor": "@nx/js:node",
      "defaultConfiguration": "development",
      "options": {
        "buildTarget": "app-b:build"
      },
      "configurations": {
        "development": {
          "buildTarget": "app-b:build:development"
        },
        "production": {
          "buildTarget": "app-b:build:production"
        }
      }
    }
  }
}
